hardware_design/zed_dma/.Xil/Vivado-19208-gsc-250/hw_ila_data_1/zip_work/waveform.vcd
$date
        2017-Apr-19 17:15:46
$end
$version
        Vivado v2016.4 (64-bit)
$end
$timescale
        1ps
$end
$scope module dut $end
$var reg 32 " dma_i/system_ila/inst/net_slot_0_axis_tdata [31:0] $end
$var reg 4 B dma_i/system_ila/inst/net_slot_0_axis_tkeep [3:0] $end
$var reg 1 F dma_i/system_ila/inst/net_slot_0_axis_tvalid $end
$var reg 1 G dma_i/system_ila/inst/net_slot_0_axis_tready $end
$var reg 1 H dma_i/system_ila/inst/net_slot_0_axis_tlast $end
$var reg 10 I dma_i/system_ila/inst/net_slot_1_axi_araddr [9:0] $end
$var reg 3 S dma_i/system_ila/inst/net_slot_1_axi_arprot [2:0] $end
$var reg 10 V dma_i/system_ila/inst/net_slot_1_axi_awaddr [9:0] $end
$var reg 3 ` dma_i/system_ila/inst/net_slot_1_axi_awprot [2:0] $end
$var reg 2 c dma_i/system_ila/inst/net_slot_1_axi_bresp [1:0] $end
$var reg 32 e dma_i/system_ila/inst/net_slot_1_axi_rdata [31:0] $end
$var reg 2 '" dma_i/system_ila/inst/net_slot_1_axi_rresp [1:0] $end
$var reg 32 )" dma_i/system_ila/inst/net_slot_1_axi_wdata [31:0] $end
$var reg 4 I" dma_i/system_ila/inst/net_slot_1_axi_wstrb [3:0] $end
$var reg 2 M" dma_i/system_ila/inst/net_slot_1_axi_aw_ctrl [1:0] $end
$var reg 2 O" dma_i/system_ila/inst/net_slot_1_axi_w_ctrl [1:0] $end
$var reg 2 Q" dma_i/system_ila/inst/net_slot_1_axi_b_ctrl [1:0] $end
$var reg 2 S" dma_i/system_ila/inst/net_slot_1_axi_ar_ctrl [1:0] $end
$var reg 2 U" dma_i/system_ila/inst/net_slot_1_axi_r_ctrl [1:0] $end
$var reg 32 W" dma_i/system_ila/inst/net_slot_2_axi_araddr [31:0] $end
$var reg 1 w" dma_i/system_ila/inst/net_slot_2_axi_arid $end
$var reg 4 x" dma_i/system_ila/inst/net_slot_2_axi_arlen [3:0] $end
$var reg 3 |" dma_i/system_ila/inst/net_slot_2_axi_arprot [2:0] $end
$var reg 3 !# dma_i/system_ila/inst/net_slot_2_axi_arsize [2:0] $end
$var reg 32 $# dma_i/system_ila/inst/net_slot_2_axi_awaddr [31:0] $end
$var reg 1 D# dma_i/system_ila/inst/net_slot_2_axi_awid $end
$var reg 4 E# dma_i/system_ila/inst/net_slot_2_axi_awlen [3:0] $end
$var reg 3 I# dma_i/system_ila/inst/net_slot_2_axi_awprot [2:0] $end
$var reg 3 L# dma_i/system_ila/inst/net_slot_2_axi_awsize [2:0] $end
$var reg 1 O# dma_i/system_ila/inst/net_slot_2_axi_bid $end
$var reg 2 P# dma_i/system_ila/inst/net_slot_2_axi_bresp [1:0] $end
$var reg 64 R# dma_i/system_ila/inst/net_slot_2_axi_rdata [63:0] $end
$var reg 1 4$ dma_i/system_ila/inst/net_slot_2_axi_rid $end
$var reg 2 5$ dma_i/system_ila/inst/net_slot_2_axi_rresp [1:0] $end
$var reg 64 7$ dma_i/system_ila/inst/net_slot_2_axi_wdata [63:0] $end
$var reg 1 w$ dma_i/system_ila/inst/net_slot_2_axi_wid $end
$var reg 8 x$ dma_i/system_ila/inst/net_slot_2_axi_wstrb [7:0] $end
$var reg 2 "% dma_i/system_ila/inst/net_slot_2_axi_aw_ctrl [1:0] $end
$var reg 3 $% dma_i/system_ila/inst/net_slot_2_axi_w_ctrl [2:0] $end
$var reg 2 '% dma_i/system_ila/inst/net_slot_2_axi_b_ctrl [1:0] $end
$var reg 2 )% dma_i/system_ila/inst/net_slot_2_axi_ar_ctrl [1:0] $end
$var reg 3 +% dma_i/system_ila/inst/net_slot_2_axi_r_ctrl [2:0] $end
$var reg 1 .% _TRIGGER $end
$var reg 1 /% _WINDOW $end
$var reg 1 0% _GAP $end
$upscope $end
$enddefinitions $end
#0
$dumpvars
b0 "
b1111 B
0F
0G
0H
b110100 I
b0 S
b110100 V
b0 `
b0 c
b0 e
b0 '"
b10111000000000011 )"
b0 I"
b0 M"
b0 O"
b0 Q"
b0 S"
b0 U"
b0 W"
0w"
b0 x"
b0 |"
b0 !#
b0 $#
0D#
b0 E#
b0 I#
b0 L#
1O#
b0 P#
b11011110000000001001100000000 R#
04$
b0 5$
b0 7$
0w$
b0 x$
b10 "%
b110 $%
b0 '%
b10 )%
b0 +%
0.%
1/%
00%
$end
#65
b11011110000000001001110000000 )"
#68
b1000000 I
b1000000 V
#69
b1 M"
b1 O"
b10 Q"
b10 U"
#73
b11 M"
b11 O"
#74
b0 M"
b0 O"
b11 Q"
#75
b0 Q"
#76
b1000100 I
b1000100 V
b0 U"
#83
b11011110000000001001100000000 W"
b11 x"
b11 !#
#84
b11 )%
#85
b10 )%
#87
b0 W"
b0 x"
b0 !#
b10 +%
#104
b11011110000000001001110000000 R#
b11 +%
#105
b11011110001000011000000000000 R#
#106
b0 R#
#107
b10000 R#
b111 +%
#108
b11011110000000001001110000000 R#
b0 +%
#125
b11011110000000001001110000000 W"
b11 x"
b11 !#
#126
b11 )%
#127
b10 )%
#128
b1000000010101100 "
1F
1G
1.%
#129
b1001011111000 "
b0 W"
b0 x"
b0 !#
b10 +%
#130
b1001011111001 "
#131
b1001011111010 "
#132
b1001011111011 "
0F
0G
#141
b11011110001000011000000000000 $#
1D#
b1 E#
b11 L#
b1000000010101100 7$
b1111 x$
b11 "%
#142
b11111111 x$
b10 "%
#144
b0 $#
b0 E#
b0 L#
1w$
b11 $%
b11 +%
#145
b11011110001000011000000000000 R#
b0 7$
b1111 x$
b110 $%
#146
b0 R#
b11111111 x$
b111 $%
#147
b10000 R#
b0 x$
b10 $%
b111 +%
#148
b11011110000000001001110000000 R#
b0 +%
#158
b11 '%
#159
0O#
b0 '%
#168
1F
1G
#169
b1001011111100 "
#170
b1001011111101 "
#171
b1001011111110 "
#172
b1001011111111 "
0F
0G
#178
b11011110000000001001100011100 $#
0D#
b10 L#
b1000000000000000000000000001000010000000000000000000000000010000 7$
b11110000 x$
b11 "%
#179
b10 "%
#181
b11011110001000011000000000000 $#
1D#
b1 E#
b11 L#
0w$
b11 "%
b111 $%
#182
b100101111100000000000000000001000000010101100 7$
b11111111 x$
b10 "%
b110 $%
#184
b0 $#
b0 E#
b0 L#
1w$
b11 $%
#185
b1001011111001 7$
b1111 x$
b110 $%
#186
b100101111101000000000000000000001001011111001 7$
b11111111 x$
b111 $%
#187
b0 7$
b0 x$
b10 $%
#193
b11 '%
#194
1O#
b0 '%
#198
b11 '%
#199
0O#
b0 '%
#218
b11011110000000001001110011100 $#
0D#
b10 L#
b1000000000000000000000000001000010000000000000000000000000010000 7$
b11110000 x$
b11 "%
#219
b10 "%
#221
b0 $#
b0 L#
0w$
b111 $%
#222
b0 7$
b0 x$
b110 $%
#233
b11 '%
#234
1O#
b0 '%
